…
``` r
PhenoSX
```

    ## # A tibble: 38 × 238
    ##     ...1 ...2  ...3  ...4  `Tree ID` `S1#1`   `S1#2` `S1#3` `S2#1` `S2#2` `S2#3`
    ##    <dbl> <chr> <chr> <chr> <chr>     <chr>    <chr>  <chr>  <chr>  <chr>  <chr> 
    ##  1     1 Year  Date  DOY   Species   B. Aspen S. Ma… R. Ma… S. Ma… S. Ma… R. Ma…
    ##  2     2 2008  38836 120   <NA>      150      150    -99    150    150    -99   
    ##  3     3 2008  38838 122   <NA>      190      150    -99    150    150    150   
    ##  4     4 2008  38840 124   <NA>      300      150    -99    210    300    210   
    ##  5     5 2008  39573 126   <NA>      300      150    -99    210    300    210   
    ##  6     6 2008  39575 128   <NA>      310      300    -99    300    300    210   
    ##  7     7 2008  39577 130   <NA>      310      300    -99    300    300    210   
    ##  8     8 2008  39579 132   <NA>      310      300    -99    300    310    250   
    ##  9     9 2008  39581 134   <NA>      310      300    -99    300    310    250   
    ## 10    10 2008  38852 136   <NA>      310      300    -99    300    310    250   
    ## # ℹ 28 more rows
    ## # ℹ 227 more variables: `S3#1` <chr>, `S3#2` <chr>, `S3#3` <chr>, `S4#1` <chr>,
    ## #   `S4#2` <chr>, `S4#3` <chr>, `S5#1` <chr>, `S5#2` <chr>, `S5#3` <chr>,
    ## #   `S6#1` <chr>, `S6#2` <chr>, `S6#3` <chr>, `S7#1` <chr>, `S7#2` <chr>,
    ## #   `S7#3` <chr>, `S7#4` <chr>, `S8#1` <chr>, `S8#2` <chr>, `S8#3` <chr>,
    ## #   `S8#4` <chr>, `S8#5` <chr>, `S8#6` <chr>, `S9#1` <chr>, `S9#2` <chr>,
    ## #   `S9#3` <chr>, `S9#4` <chr>, `S9#5` <chr>, `S10#1` <chr>, `S10#2` <chr>, …
…
PhenoAF <- CleanMyTables(PhenoAF)
PhenoGL <- CleanMyTables(PhenoGL) #Using my function to just clean the tables
PhenoMR <- CleanMyTables(PhenoMR)
PhenoSX <- CleanMyTables(PhenoSX)

PhenoSX # To check that the function worked
```

    ## # A tibble: 37 × 236
    ##    Year  Date         DOY `S1#1` `S1#2` `S1#3` `S2#1` `S2#2` `S2#3` `S3#1`
    ##    <chr> <date>     <dbl> <chr>  <chr>  <chr>  <chr>  <chr>  <chr>  <chr> 
    ##  1 2008  2008-04-29   120 150    150    -99    150    150    -99    150   
    ##  2 2008  2008-05-01   122 190    150    -99    150    150    150    150   
    ##  3 2008  2008-05-03   124 300    150    -99    210    300    210    200   
    ##  4 2008  2008-05-05   126 300    150    -99    210    300    210    210   
    ##  5 2008  2008-05-07   128 310    300    -99    300    300    210    210   
    ##  6 2008  2008-05-09   130 310    300    -99    300    300    210    210   
    ##  7 2008  2008-05-11   132 310    300    -99    300    310    250    300   
    ##  8 2008  2008-05-13   134 310    300    -99    300    310    250    300   
    ##  9 2008  2008-05-15   136 310    300    -99    300    310    250    300   
    ## 10 2008  2008-05-17   138 310    300    -99    310    400    350    300   
    ## # ℹ 27 more rows
    ## # ℹ 226 more variables: `S3#2` <chr>, `S3#3` <chr>, `S4#1` <chr>, `S4#2` <chr>,
    ## #   `S4#3` <chr>, `S5#1` <chr>, `S5#2` <chr>, `S5#3` <chr>, `S6#1` <chr>,
    ## #   `S6#2` <chr>, `S6#3` <chr>, `S7#1` <chr>, `S7#2` <chr>, `S7#3` <chr>,
    ## #   `S7#4` <chr>, `S8#1` <chr>, `S8#2` <chr>, `S8#3` <chr>, `S8#4` <chr>,
    ## #   `S8#5` <chr>, `S8#6` <chr>, `S9#1` <chr>, `S9#2` <chr>, `S9#3` <chr>,
    ## #   `S9#4` <chr>, `S9#5` <chr>, `S10#1` <chr>, `S10#2` <chr>, `S10#3` <chr>, …
…
### Joining the Tables

Now: I still want to mix all the data together into one big table, so to
do that, I’m going to use a full_join and join_by(Date)

``` r
PhenoAX <- PhenoAF %>% 
  full_join(PhenoGL, join_by(Date, DOY, Year)) %>% #Organizes by Date, DOY, and Year. Otherwise, there will be duplicate DOY and Year columns (even though they all match by Date)
  full_join(PhenoMR, join_by(Date, DOY, Year)) %>% 
  full_join(PhenoSX, join_by(Date, DOY, Year))
PhenoAX
```

    ## # A tibble: 75 × 891
    ##    Year  Date         DOY `A1#1` `A1#2` `A1#3` `A2#1` `A2#2` `A2#3` `A3#1`
    ##    <chr> <date>     <dbl> <chr>  <chr>  <chr>  <chr>  <chr>  <chr>  <chr> 
    ##  1 2006  2006-04-29   119 290    310    190    290    350    -99    400   
    ##  2 2006  2006-05-01   121 390    310    190    290    350    -99    400   
    ##  3 2006  2006-05-03   123 400    310    290    290    400    -99    510   
    ##  4 2006  2006-05-04   124 450    310    290    410    410    -99    510   
    ##  5 2006  2006-05-06   126 450    310    290    410    500    -99    510   
    ##  6 2006  2006-05-08   128 490    350    290    410    500    -99    550   
    ##  7 2006  2006-05-10   130 550    400    350    550    510    -99    590   
    ##  8 2006  2006-05-13   133 550    410    400    550    550    -99    590   
    ##  9 2006  2006-05-15   135 590    410    410    550    550    -99    600   
    ## 10 2006  2006-05-17   137 600    490    410    550    550    -99    625   
    ## # ℹ 65 more rows
    ## # ℹ 881 more variables: `A3#2` <chr>, `A3#3` <chr>, `A4#1` <chr>, `A4#2` <chr>,
    ## #   `A4#3` <chr>, `A5#1` <chr>, `A5#2` <chr>, `A5#3` <chr>, `A6#1` <chr>,
    ## #   `A6#2` <chr>, `A6#3` <chr>, `A7#1` <chr>, `A7#2` <chr>, `A7#3` <chr>,
    ## #   `A8#1` <chr>, `A8#2` <chr>, `A8#3` <chr>, `A9#1` <chr>, `A9#2` <chr>,
    ## #   `A9#3` <chr>, `A10#1` <chr>, `A10#2` <chr>, `A10#3` <chr>, `A11#1` <chr>,
    ## #   `A11#2` <chr>, `A11#3` <chr>, `A12#1` <chr>, `A12#2` <chr>, …
…
    ## # A tibble: 6 × 6
    ##   Year  Date         DOY Site  TreeID Phenophase
    ##   <chr> <date>     <dbl> <chr> <chr>  <chr>     
    ## 1 2010  2010-05-26   146 X11   1      675       
    ## 2 2010  2010-05-26   146 X11   2      590       
    ## 3 2010  2010-05-26   146 X11   3      675       
    ## 4 2010  2010-05-26   146 X12   1      100       
    ## 5 2010  2010-05-26   146 X12   2      675       
    ## 6 2010  2010-05-26   146 X12   3      675

``` r
LongAX
```

    ## # A tibble: 66,600 × 6
    ##    Year  Date         DOY Site  TreeID Phenophase
    ##    <chr> <date>     <dbl> <chr> <chr>  <chr>     
    ##  1 2006  2006-04-29   119 A1    1      290       
    ##  2 2006  2006-04-29   119 A1    2      310       
    ##  3 2006  2006-04-29   119 A1    3      190       
    ##  4 2006  2006-04-29   119 A2    1      290       
    ##  5 2006  2006-04-29   119 A2    2      350       
    ##  6 2006  2006-04-29   119 A2    3      -99       
    ##  7 2006  2006-04-29   119 A3    1      400       
    ##  8 2006  2006-04-29   119 A3    2      290       
    ##  9 2006  2006-04-29   119 A3    3      190       
    ## 10 2006  2006-04-29   119 A4    1      290       
    ## # ℹ 66,590 more rows
…
CompleteAX <- LongAX %>% 
  mutate(Phenology = case_when(substr(as.character(Phenophase), 1, 1) == "1" ~ "Bud Visible", #Makes Phenotype based on the first number of the Phenophase code
                               substr(as.character(Phenophase), 1, 1) == "2" ~ "Bud Swollen",
                               substr(as.character(Phenophase), 1, 1) == "3" ~ "Bud Open",
                               substr(as.character(Phenophase), 1, 1) == "4" & Species %in% Deciduous == TRUE ~ "Leaf Out", #Adds the condition of whether its deciduous or not
                               substr(as.character(Phenophase), 1, 1) == "4" & Species %in% Deciduous == FALSE ~ "Candle Out",
                               substr(as.character(Phenophase), 1, 1) == "5" & Species %in% Deciduous == TRUE ~ "Full Leaf Unfolded",
                               substr(as.character(Phenophase), 1, 1) == "5" & Species %in% Deciduous == FALSE ~ "Needles Unfolding from Candle",
                               substr(as.character(Phenophase), 1, 1) == "6" & Species %in% Deciduous == TRUE ~ "Leaf Expansion",
                               substr(as.character(Phenophase), 1, 1) == "6" & Species %in% Deciduous == FALSE ~ "Not Used")) #Only added the Not Used just in case there are some 600 stuff for non-deciduous trees.

CompleteAX
```

    ## # A tibble: 36,076 × 8
    ##    Year  Date         DOY Site  TreeID Species  Phenophase Phenology  
    ##    <chr> <date>     <dbl> <chr> <chr>  <chr>    <chr>      <chr>      
    ##  1 2006  2006-04-29   119 A1    1      R. Maple 290        Bud Swollen
    ##  2 2006  2006-04-29   119 A1    2      S. Alder 310        Bud Open   
    ##  3 2006  2006-04-29   119 A1    3      B. Fir   190        Bud Visible
    ##  4 2006  2006-04-29   119 A2    1      R. Maple 290        Bud Swollen
    ##  5 2006  2006-04-29   119 A2    2      S. Alder 350        Bud Open   
    ##  6 2006  2006-04-29   119 A3    1      Aspen    400        Leaf Out   
    ##  7 2006  2006-04-29   119 A3    2      Aspen    290        Bud Swollen
    ##  8 2006  2006-04-29   119 A3    3      B. Fir   190        Bud Visible
    ##  9 2006  2006-04-29   119 A4    1      Aspen    290        Bud Swollen
    ## 10 2006  2006-04-29   119 A4    2      Aspen    290        Bud Swollen
    ## # ℹ 36,066 more rows
…
